<?xml version="1.0" encoding="windows-1252" standalone="no"?>
<!DOCTYPE log SYSTEM "logger.dtd">
<log>
<record>
  <date>2022-09-27T09:32:16.481287800Z</date>
  <millis>1664271136481</millis>
  <nanos>287800</nanos>
  <sequence>0</sequence>
  <logger>global</logger>
  <level>WARNING</level>
  <class>com.gl.main.logger.LogClass</class>
  <method>logMethod</method>
  <thread>1</thread>
  <message>warning message</message>
</record>
<record>
  <date>2022-09-27T09:32:16.653463400Z</date>
  <millis>1664271136653</millis>
  <nanos>463400</nanos>
  <sequence>1</sequence>
  <logger>global</logger>
  <level>INFO</level>
  <class>com.gl.main.logger.LogClass</class>
  <method>logMethod</method>
  <thread>1</thread>
  <message>info message</message>
</record>
<record>
  <date>2022-09-27T09:32:16.673371400Z</date>
  <millis>1664271136673</millis>
  <nanos>371400</nanos>
  <sequence>2</sequence>
  <logger>global</logger>
  <level>INFO</level>
  <class>com.gl.main.logger.LogClass</class>
  <method>logMethod</method>
  <thread>1</thread>
  <message>data added</message>
</record>
<record>
  <date>2022-09-27T09:32:16.674370700Z</date>
  <millis>1664271136674</millis>
  <nanos>370700</nanos>
  <sequence>3</sequence>
  <logger>global</logger>
  <level>INFO</level>
  <class>com.gl.main.logger.LogClass</class>
  <method>logMethod</method>
  <thread>1</thread>
  <message>tasks added</message>
</record>
</log>
<?xml version="1.0" encoding="windows-1252" standalone="no"?>
<!DOCTYPE log SYSTEM "logger.dtd">
<log>
<record>
  <date>2022-09-27T12:55:19.027251300Z</date>
  <millis>1664283319027</millis>
  <nanos>251300</nanos>
  <sequence>0</sequence>
  <logger>global</logger>
  <level>WARNING</level>
  <class>com.gl.mini.logger.LogClass</class>
  <method>logMethod</method>
  <thread>1</thread>
  <message>warning message</message>
</record>
<record>
  <date>2022-09-27T12:55:19.172016800Z</date>
  <millis>1664283319172</millis>
  <nanos>16800</nanos>
  <sequence>1</sequence>
  <logger>global</logger>
  <level>INFO</level>
  <class>com.gl.mini.logger.LogClass</class>
  <method>logMethod</method>
  <thread>1</thread>
  <message>info message</message>
</record>
<record>
  <date>2022-09-27T12:55:19.173013200Z</date>
  <millis>1664283319173</millis>
  <nanos>13200</nanos>
  <sequence>2</sequence>
  <logger>global</logger>
  <level>INFO</level>
  <class>com.gl.mini.logger.LogClass</class>
  <method>logMethod</method>
  <thread>1</thread>
  <message>data added</message>
</record>
<record>
  <date>2022-09-27T12:55:19.174009800Z</date>
  <millis>1664283319174</millis>
  <nanos>9800</nanos>
  <sequence>3</sequence>
  <logger>global</logger>
  <level>INFO</level>
  <class>com.gl.mini.logger.LogClass</class>
  <method>logMethod</method>
  <thread>1</thread>
  <message>tasks added</message>
</record>
<?xml version="1.0" encoding="windows-1252" standalone="no"?>
<!DOCTYPE log SYSTEM "logger.dtd">
<log>
<record>
  <date>2022-09-28T06:44:05.894707700Z</date>
  <millis>1664347445894</millis>
  <nanos>707700</nanos>
  <sequence>0</sequence>
  <logger>global</logger>
  <level>WARNING</level>
  <class>com.gl.mini.logger.LogClass</class>
  <method>logMethod</method>
  <thread>1</thread>
  <message>warning message</message>
</record>
<record>
  <date>2022-09-28T06:44:05.955017400Z</date>
  <millis>1664347445955</millis>
  <nanos>17400</nanos>
  <sequence>1</sequence>
  <logger>global</logger>
  <level>INFO</level>
  <class>com.gl.mini.logger.LogClass</class>
  <method>logMethod</method>
  <thread>1</thread>
  <message>info message</message>
</record>
<record>
  <date>2022-09-28T06:44:05.955946Z</date>
  <millis>1664347445955</millis>
  <nanos>946000</nanos>
  <sequence>2</sequence>
  <logger>global</logger>
  <level>INFO</level>
  <class>com.gl.mini.logger.LogClass</class>
  <method>logMethod</method>
  <thread>1</thread>
  <message>data added</message>
</record>
<record>
  <date>2022-09-28T06:44:05.955946Z</date>
  <millis>1664347445955</millis>
  <nanos>946000</nanos>
  <sequence>3</sequence>
  <logger>global</logger>
  <level>INFO</level>
  <class>com.gl.mini.logger.LogClass</class>
  <method>logMethod</method>
  <thread>1</thread>
  <message>tasks added</message>
</record>
</log>
