<?xml version="1.0" encoding="windows-1252" standalone="no"?>
<!DOCTYPE log SYSTEM "logger.dtd">
<log>
<record>
  <date>2022-09-27T07:23:06.847567900Z</date>
  <millis>1664263386847</millis>
  <nanos>567900</nanos>
  <sequence>0</sequence>
  <logger>global</logger>
  <level>WARNING</level>
  <class>com.gl.main.logger.LogClass</class>
  <method>logMethod</method>
  <thread>1</thread>
  <message>warning message</message>
</record>
<record>
  <date>2022-09-27T07:23:06.906043100Z</date>
  <millis>1664263386906</millis>
  <nanos>43100</nanos>
  <sequence>1</sequence>
  <logger>global</logger>
  <level>INFO</level>
  <class>com.gl.main.logger.LogClass</class>
  <method>logMethod</method>
  <thread>1</thread>
  <message>info message</message>
</record>
<record>
  <date>2022-09-27T07:23:06.908039100Z</date>
  <millis>1664263386908</millis>
  <nanos>39100</nanos>
  <sequence>2</sequence>
  <logger>global</logger>
  <level>INFO</level>
  <class>com.gl.main.logger.LogClass</class>
  <method>logMethod</method>
  <thread>1</thread>
  <message>data added</message>
</record>
<record>
  <date>2022-09-27T07:23:06.908039100Z</date>
  <millis>1664263386908</millis>
  <nanos>39100</nanos>
  <sequence>3</sequence>
  <logger>global</logger>
  <level>INFO</level>
  <class>com.gl.main.logger.LogClass</class>
  <method>logMethod</method>
  <thread>1</thread>
  <message>tasks added</message>
</record>
</log>
<?xml version="1.0" encoding="windows-1252" standalone="no"?>
<!DOCTYPE log SYSTEM "logger.dtd">
<log>
<record>
  <date>2022-09-27T07:24:00.194573500Z</date>
  <millis>1664263440194</millis>
  <nanos>573500</nanos>
  <sequence>0</sequence>
  <logger>global</logger>
  <level>WARNING</level>
  <class>com.gl.main.logger.LogClass</class>
  <method>logMethod</method>
  <thread>1</thread>
  <message>warning message</message>
</record>
<record>
  <date>2022-09-27T07:24:00.249272900Z</date>
  <millis>1664263440249</millis>
  <nanos>272900</nanos>
  <sequence>1</sequence>
  <logger>global</logger>
  <level>INFO</level>
  <class>com.gl.main.logger.LogClass</class>
  <method>logMethod</method>
  <thread>1</thread>
  <message>info message</message>
</record>
<record>
  <date>2022-09-27T07:24:00.249272900Z</date>
  <millis>1664263440249</millis>
  <nanos>272900</nanos>
  <sequence>2</sequence>
  <logger>global</logger>
  <level>INFO</level>
  <class>com.gl.main.logger.LogClass</class>
  <method>logMethod</method>
  <thread>1</thread>
  <message>data added</message>
</record>
<record>
  <date>2022-09-27T07:24:00.250270200Z</date>
  <millis>1664263440250</millis>
  <nanos>270200</nanos>
  <sequence>3</sequence>
  <logger>global</logger>
  <level>INFO</level>
  <class>com.gl.main.logger.LogClass</class>
  <method>logMethod</method>
  <thread>1</thread>
  <message>tasks added</message>
</record>
</log>
<?xml version="1.0" encoding="windows-1252" standalone="no"?>
<!DOCTYPE log SYSTEM "logger.dtd">
<log>
<record>
  <date>2022-09-27T07:34:10.135339300Z</date>
  <millis>1664264050135</millis>
  <nanos>339300</nanos>
  <sequence>0</sequence>
  <logger>global</logger>
  <level>WARNING</level>
  <class>com.gl.main.logger.LogClass</class>
  <method>logMethod</method>
  <thread>1</thread>
  <message>warning message</message>
</record>
<record>
  <date>2022-09-27T07:34:10.209804800Z</date>
  <millis>1664264050209</millis>
  <nanos>804800</nanos>
  <sequence>1</sequence>
  <logger>global</logger>
  <level>INFO</level>
  <class>com.gl.main.logger.LogClass</class>
  <method>logMethod</method>
  <thread>1</thread>
  <message>info message</message>
</record>
<record>
  <date>2022-09-27T07:34:10.210837Z</date>
  <millis>1664264050210</millis>
  <nanos>837000</nanos>
  <sequence>2</sequence>
  <logger>global</logger>
  <level>INFO</level>
  <class>com.gl.main.logger.LogClass</class>
  <method>logMethod</method>
  <thread>1</thread>
  <message>data added</message>
</record>
<record>
  <date>2022-09-27T07:34:10.210837Z</date>
  <millis>1664264050210</millis>
  <nanos>837000</nanos>
  <sequence>3</sequence>
  <logger>global</logger>
  <level>INFO</level>
  <class>com.gl.main.logger.LogClass</class>
  <method>logMethod</method>
  <thread>1</thread>
  <message>tasks added</message>
</record>
<?xml version="1.0" encoding="windows-1252" standalone="no"?>
<!DOCTYPE log SYSTEM "logger.dtd">
<log>
<record>
  <date>2022-09-27T10:24:35.614087100Z</date>
  <millis>1664274275614</millis>
  <nanos>87100</nanos>
  <sequence>0</sequence>
  <logger>global</logger>
  <level>WARNING</level>
  <class>com.gl.mini.logger.LogClass</class>
  <method>logMethod</method>
  <thread>1</thread>
  <message>warning message</message>
</record>
<record>
  <date>2022-09-27T10:24:35.876552800Z</date>
  <millis>1664274275876</millis>
  <nanos>552800</nanos>
  <sequence>1</sequence>
  <logger>global</logger>
  <level>INFO</level>
  <class>com.gl.mini.logger.LogClass</class>
  <method>logMethod</method>
  <thread>1</thread>
  <message>info message</message>
</record>
<record>
  <date>2022-09-27T10:24:35.878557200Z</date>
  <millis>1664274275878</millis>
  <nanos>557200</nanos>
  <sequence>2</sequence>
  <logger>global</logger>
  <level>INFO</level>
  <class>com.gl.mini.logger.LogClass</class>
  <method>logMethod</method>
  <thread>1</thread>
  <message>data added</message>
</record>
<record>
  <date>2022-09-27T10:24:35.879553700Z</date>
  <millis>1664274275879</millis>
  <nanos>553700</nanos>
  <sequence>3</sequence>
  <logger>global</logger>
  <level>INFO</level>
  <class>com.gl.mini.logger.LogClass</class>
  <method>logMethod</method>
  <thread>1</thread>
  <message>tasks added</message>
</record>
<?xml version="1.0" encoding="windows-1252" standalone="no"?>
<!DOCTYPE log SYSTEM "logger.dtd">
<log>
<record>
  <date>2022-09-27T16:13:52.804260300Z</date>
  <millis>1664295232804</millis>
  <nanos>260300</nanos>
  <sequence>0</sequence>
  <logger>global</logger>
  <level>WARNING</level>
  <class>com.gl.mini.logger.LogClass</class>
  <method>logMethod</method>
  <thread>1</thread>
  <message>warning message</message>
</record>
<record>
  <date>2022-09-27T16:13:52.935720200Z</date>
  <millis>1664295232935</millis>
  <nanos>720200</nanos>
  <sequence>1</sequence>
  <logger>global</logger>
  <level>INFO</level>
  <class>com.gl.mini.logger.LogClass</class>
  <method>logMethod</method>
  <thread>1</thread>
  <message>info message</message>
</record>
<record>
  <date>2022-09-27T16:13:52.936711500Z</date>
  <millis>1664295232936</millis>
  <nanos>711500</nanos>
  <sequence>2</sequence>
  <logger>global</logger>
  <level>INFO</level>
  <class>com.gl.mini.logger.LogClass</class>
  <method>logMethod</method>
  <thread>1</thread>
  <message>data added</message>
</record>
<record>
  <date>2022-09-27T16:13:52.938631500Z</date>
  <millis>1664295232938</millis>
  <nanos>631500</nanos>
  <sequence>3</sequence>
  <logger>global</logger>
  <level>INFO</level>
  <class>com.gl.mini.logger.LogClass</class>
  <method>logMethod</method>
  <thread>1</thread>
  <message>tasks added</message>
</record>
</log>
<?xml version="1.0" encoding="windows-1252" standalone="no"?>
<!DOCTYPE log SYSTEM "logger.dtd">
<log>
<record>
  <date>2022-09-27T19:07:30.349943200Z</date>
  <millis>1664305650349</millis>
  <nanos>943200</nanos>
  <sequence>0</sequence>
  <logger>global</logger>
  <level>WARNING</level>
  <class>com.gl.mini.logger.LogClass</class>
  <method>logMethod</method>
  <thread>1</thread>
  <message>warning message</message>
</record>
<record>
  <date>2022-09-27T19:07:30.481976300Z</date>
  <millis>1664305650481</millis>
  <nanos>976300</nanos>
  <sequence>1</sequence>
  <logger>global</logger>
  <level>INFO</level>
  <class>com.gl.mini.logger.LogClass</class>
  <method>logMethod</method>
  <thread>1</thread>
  <message>info message</message>
</record>
<record>
  <date>2022-09-27T19:07:30.483052400Z</date>
  <millis>1664305650483</millis>
  <nanos>52400</nanos>
  <sequence>2</sequence>
  <logger>global</logger>
  <level>INFO</level>
  <class>com.gl.mini.logger.LogClass</class>
  <method>logMethod</method>
  <thread>1</thread>
  <message>data added</message>
</record>
<record>
  <date>2022-09-27T19:07:30.484016500Z</date>
  <millis>1664305650484</millis>
  <nanos>16500</nanos>
  <sequence>3</sequence>
  <logger>global</logger>
  <level>INFO</level>
  <class>com.gl.mini.logger.LogClass</class>
  <method>logMethod</method>
  <thread>1</thread>
  <message>tasks added</message>
</record>
</log>
<?xml version="1.0" encoding="windows-1252" standalone="no"?>
<!DOCTYPE log SYSTEM "logger.dtd">
<log>
<record>
  <date>2022-09-27T19:28:37.671507700Z</date>
  <millis>1664306917671</millis>
  <nanos>507700</nanos>
  <sequence>0</sequence>
  <logger>global</logger>
  <level>WARNING</level>
  <class>com.gl.mini.logger.LogClass</class>
  <method>logMethod</method>
  <thread>1</thread>
  <message>warning message</message>
</record>
<record>
  <date>2022-09-27T19:28:37.796227400Z</date>
  <millis>1664306917796</millis>
  <nanos>227400</nanos>
  <sequence>1</sequence>
  <logger>global</logger>
  <level>INFO</level>
  <class>com.gl.mini.logger.LogClass</class>
  <method>logMethod</method>
  <thread>1</thread>
  <message>info message</message>
</record>
<record>
  <date>2022-09-27T19:28:37.797607800Z</date>
  <millis>1664306917797</millis>
  <nanos>607800</nanos>
  <sequence>2</sequence>
  <logger>global</logger>
  <level>INFO</level>
  <class>com.gl.mini.logger.LogClass</class>
  <method>logMethod</method>
  <thread>1</thread>
  <message>data added</message>
</record>
<record>
  <date>2022-09-27T19:28:37.798563Z</date>
  <millis>1664306917798</millis>
  <nanos>563000</nanos>
  <sequence>3</sequence>
  <logger>global</logger>
  <level>INFO</level>
  <class>com.gl.mini.logger.LogClass</class>
  <method>logMethod</method>
  <thread>1</thread>
  <message>tasks added</message>
</record>
</log>
<?xml version="1.0" encoding="windows-1252" standalone="no"?>
<!DOCTYPE log SYSTEM "logger.dtd">
<log>
<record>
  <date>2022-09-28T05:03:22.334694500Z</date>
  <millis>1664341402334</millis>
  <nanos>694500</nanos>
  <sequence>0</sequence>
  <logger>global</logger>
  <level>WARNING</level>
  <class>com.gl.mini.logger.LogClass</class>
  <method>logMethod</method>
  <thread>1</thread>
  <message>warning message</message>
</record>
<record>
  <date>2022-09-28T05:03:22.602118400Z</date>
  <millis>1664341402602</millis>
  <nanos>118400</nanos>
  <sequence>1</sequence>
  <logger>global</logger>
  <level>INFO</level>
  <class>com.gl.mini.logger.LogClass</class>
  <method>logMethod</method>
  <thread>1</thread>
  <message>info message</message>
</record>
<record>
  <date>2022-09-28T05:03:22.604035100Z</date>
  <millis>1664341402604</millis>
  <nanos>35100</nanos>
  <sequence>2</sequence>
  <logger>global</logger>
  <level>INFO</level>
  <class>com.gl.mini.logger.LogClass</class>
  <method>logMethod</method>
  <thread>1</thread>
  <message>data added</message>
</record>
<record>
  <date>2022-09-28T05:03:22.608602800Z</date>
  <millis>1664341402608</millis>
  <nanos>602800</nanos>
  <sequence>3</sequence>
  <logger>global</logger>
  <level>INFO</level>
  <class>com.gl.mini.logger.LogClass</class>
  <method>logMethod</method>
  <thread>1</thread>
  <message>tasks added</message>
</record>
</log>
<?xml version="1.0" encoding="windows-1252" standalone="no"?>
<!DOCTYPE log SYSTEM "logger.dtd">
<log>
<record>
  <date>2022-09-28T09:16:20.975869600Z</date>
  <millis>1664356580975</millis>
  <nanos>869600</nanos>
  <sequence>0</sequence>
  <logger>global</logger>
  <level>WARNING</level>
  <class>com.gl.mini.logger.LogClass</class>
  <method>logMethod</method>
  <thread>1</thread>
  <message>warning message</message>
</record>
<record>
  <date>2022-09-28T09:16:21.096599600Z</date>
  <millis>1664356581096</millis>
  <nanos>599600</nanos>
  <sequence>1</sequence>
  <logger>global</logger>
  <level>INFO</level>
  <class>com.gl.mini.logger.LogClass</class>
  <method>logMethod</method>
  <thread>1</thread>
  <message>info message</message>
</record>
<record>
  <date>2022-09-28T09:16:21.097599700Z</date>
  <millis>1664356581097</millis>
  <nanos>599700</nanos>
  <sequence>2</sequence>
  <logger>global</logger>
  <level>INFO</level>
  <class>com.gl.mini.logger.LogClass</class>
  <method>logMethod</method>
  <thread>1</thread>
  <message>data added</message>
</record>
<record>
  <date>2022-09-28T09:16:21.098597300Z</date>
  <millis>1664356581098</millis>
  <nanos>597300</nanos>
  <sequence>3</sequence>
  <logger>global</logger>
  <level>INFO</level>
  <class>com.gl.mini.logger.LogClass</class>
  <method>logMethod</method>
  <thread>1</thread>
  <message>tasks added</message>
</record>
</log>
<?xml version="1.0" encoding="windows-1252" standalone="no"?>
<!DOCTYPE log SYSTEM "logger.dtd">
<log>
<record>
  <date>2022-09-28T09:17:03.543972Z</date>
  <millis>1664356623543</millis>
  <nanos>972000</nanos>
  <sequence>0</sequence>
  <logger>global</logger>
  <level>WARNING</level>
  <class>com.gl.mini.logger.LogClass</class>
  <method>logMethod</method>
  <thread>1</thread>
  <message>warning message</message>
</record>
<record>
  <date>2022-09-28T09:17:03.650381200Z</date>
  <millis>1664356623650</millis>
  <nanos>381200</nanos>
  <sequence>1</sequence>
  <logger>global</logger>
  <level>INFO</level>
  <class>com.gl.mini.logger.LogClass</class>
  <method>logMethod</method>
  <thread>1</thread>
  <message>info message</message>
</record>
<record>
  <date>2022-09-28T09:17:03.651381Z</date>
  <millis>1664356623651</millis>
  <nanos>381000</nanos>
  <sequence>2</sequence>
  <logger>global</logger>
  <level>INFO</level>
  <class>com.gl.mini.logger.LogClass</class>
  <method>logMethod</method>
  <thread>1</thread>
  <message>data added</message>
</record>
<record>
  <date>2022-09-28T09:17:03.651381Z</date>
  <millis>1664356623651</millis>
  <nanos>381000</nanos>
  <sequence>3</sequence>
  <logger>global</logger>
  <level>INFO</level>
  <class>com.gl.mini.logger.LogClass</class>
  <method>logMethod</method>
  <thread>1</thread>
  <message>tasks added</message>
</record>
</log>
<?xml version="1.0" encoding="windows-1252" standalone="no"?>
<!DOCTYPE log SYSTEM "logger.dtd">
<log>
<record>
  <date>2022-09-28T09:20:20.325734400Z</date>
  <millis>1664356820325</millis>
  <nanos>734400</nanos>
  <sequence>0</sequence>
  <logger>global</logger>
  <level>WARNING</level>
  <class>com.gl.mini.logger.LogClass</class>
  <method>logMethod</method>
  <thread>1</thread>
  <message>warning message</message>
</record>
<record>
  <date>2022-09-28T09:20:20.435293Z</date>
  <millis>1664356820435</millis>
  <nanos>293000</nanos>
  <sequence>1</sequence>
  <logger>global</logger>
  <level>INFO</level>
  <class>com.gl.mini.logger.LogClass</class>
  <method>logMethod</method>
  <thread>1</thread>
  <message>info message</message>
</record>
<record>
  <date>2022-09-28T09:20:20.437299500Z</date>
  <millis>1664356820437</millis>
  <nanos>299500</nanos>
  <sequence>2</sequence>
  <logger>global</logger>
  <level>INFO</level>
  <class>com.gl.mini.logger.LogClass</class>
  <method>logMethod</method>
  <thread>1</thread>
  <message>data added</message>
</record>
<record>
  <date>2022-09-28T09:20:20.438293200Z</date>
  <millis>1664356820438</millis>
  <nanos>293200</nanos>
  <sequence>3</sequence>
  <logger>global</logger>
  <level>INFO</level>
  <class>com.gl.mini.logger.LogClass</class>
  <method>logMethod</method>
  <thread>1</thread>
  <message>tasks added</message>
</record>
</log>
<?xml version="1.0" encoding="windows-1252" standalone="no"?>
<!DOCTYPE log SYSTEM "logger.dtd">
<log>
<record>
  <date>2022-09-28T09:20:55.677135300Z</date>
  <millis>1664356855677</millis>
  <nanos>135300</nanos>
  <sequence>0</sequence>
  <logger>global</logger>
  <level>WARNING</level>
  <class>com.gl.mini.logger.LogClass</class>
  <method>logMethod</method>
  <thread>1</thread>
  <message>warning message</message>
</record>
<record>
  <date>2022-09-28T09:20:55.801820200Z</date>
  <millis>1664356855801</millis>
  <nanos>820200</nanos>
  <sequence>1</sequence>
  <logger>global</logger>
  <level>INFO</level>
  <class>com.gl.mini.logger.LogClass</class>
  <method>logMethod</method>
  <thread>1</thread>
  <message>info message</message>
</record>
<record>
  <date>2022-09-28T09:20:55.802819200Z</date>
  <millis>1664356855802</millis>
  <nanos>819200</nanos>
  <sequence>2</sequence>
  <logger>global</logger>
  <level>INFO</level>
  <class>com.gl.mini.logger.LogClass</class>
  <method>logMethod</method>
  <thread>1</thread>
  <message>data added</message>
</record>
<record>
  <date>2022-09-28T09:20:55.803391700Z</date>
  <millis>1664356855803</millis>
  <nanos>391700</nanos>
  <sequence>3</sequence>
  <logger>global</logger>
  <level>INFO</level>
  <class>com.gl.mini.logger.LogClass</class>
  <method>logMethod</method>
  <thread>1</thread>
  <message>tasks added</message>
</record>
</log>
<?xml version="1.0" encoding="windows-1252" standalone="no"?>
<!DOCTYPE log SYSTEM "logger.dtd">
<log>
<record>
  <date>2022-09-29T05:47:09.794541400Z</date>
  <millis>1664430429794</millis>
  <nanos>541400</nanos>
  <sequence>0</sequence>
  <logger>global</logger>
  <level>WARNING</level>
  <class>com.gl.mini.logger.LogClass</class>
  <method>logMethod</method>
  <thread>1</thread>
  <message>warning message</message>
</record>
<record>
  <date>2022-09-29T05:47:10.116986500Z</date>
  <millis>1664430430116</millis>
  <nanos>986500</nanos>
  <sequence>1</sequence>
  <logger>global</logger>
  <level>INFO</level>
  <class>com.gl.mini.logger.LogClass</class>
  <method>logMethod</method>
  <thread>1</thread>
  <message>info message</message>
</record>
<record>
  <date>2022-09-29T05:47:10.119154900Z</date>
  <millis>1664430430119</millis>
  <nanos>154900</nanos>
  <sequence>2</sequence>
  <logger>global</logger>
  <level>INFO</level>
  <class>com.gl.mini.logger.LogClass</class>
  <method>logMethod</method>
  <thread>1</thread>
  <message>data added</message>
</record>
<record>
  <date>2022-09-29T05:47:10.121154400Z</date>
  <millis>1664430430121</millis>
  <nanos>154400</nanos>
  <sequence>3</sequence>
  <logger>global</logger>
  <level>INFO</level>
  <class>com.gl.mini.logger.LogClass</class>
  <method>logMethod</method>
  <thread>1</thread>
  <message>tasks added</message>
</record>
</log>
