<?xml version="1.0" encoding="windows-1252" standalone="no"?>
<!DOCTYPE log SYSTEM "logger.dtd">
<log>
<record>
  <date>2022-09-22T18:57:30.102618500Z</date>
  <millis>1663873050102</millis>
  <nanos>618500</nanos>
  <sequence>0</sequence>
  <logger>global</logger>
  <level>WARNING</level>
  <class>logpackage.LoggerClass</class>
  <method>logMethod</method>
  <thread>1</thread>
  <message>warning message</message>
</record>
<record>
  <date>2022-09-22T18:57:30.170205100Z</date>
  <millis>1663873050170</millis>
  <nanos>205100</nanos>
  <sequence>1</sequence>
  <logger>global</logger>
  <level>INFO</level>
  <class>logpackage.LoggerClass</class>
  <method>logMethod</method>
  <thread>1</thread>
  <message>info message</message>
</record>
<record>
  <date>2022-09-22T18:57:30.188771100Z</date>
  <millis>1663873050188</millis>
  <nanos>771100</nanos>
  <sequence>2</sequence>
  <logger>global</logger>
  <level>INFO</level>
  <class>logpackage.LoggerClass</class>
  <method>logMethod</method>
  <thread>1</thread>
  <message>data added</message>
</record>
<record>
  <date>2022-09-22T18:57:30.189779400Z</date>
  <millis>1663873050189</millis>
  <nanos>779400</nanos>
  <sequence>3</sequence>
  <logger>global</logger>
  <level>INFO</level>
  <class>logpackage.LoggerClass</class>
  <method>logMethod</method>
  <thread>1</thread>
  <message>tasks added</message>
</record>
</log>
